# File generated by ImageToStl.com - Free Image and 3D model conversion tools

o obj1
v 5.69648743 0 0
v 5.69648743 47.77398682 0
v 12.17248535 21.9375 0
v 12.17248535 5.28948975 0
v 43.33198547 5.28948975 0
v 43.33198547 0 0
v 12.17248535 27.15899658 0
v 39.90748596 27.15899658 0
v 39.90748596 21.9375 0
v 12.17248535 42.48449707 0
v 41.94198608 47.77398682 0
v 41.94198608 42.48449707 0
v 12.17248535 21.9375 10
v 5.69648743 47.77398682 10
v 5.69648743 0 10
v 43.33198547 0 10
v 43.33198547 5.28948975 10
v 12.17248535 5.28948975 10
v 12.17248535 27.15899658 10
v 39.90748596 21.9375 10
v 39.90748596 27.15899658 10
v 12.17248535 42.48449707 10
v 41.94198608 42.48449707 10
v 41.94198608 47.77398682 10
vn 0 0 -1
vn 0 0 1
vn 0 1 0
vn 1 0 0
vn 0 -1 0
vn -1 0 0
f 1//1 2//1 3//1
f 4//1 5//1 6//1
f 3//1 2//1 7//1
f 4//1 6//1 1//1
f 7//1 8//1 9//1
f 3//1 7//1 9//1
f 7//1 2//1 10//1
f 10//1 11//1 12//1
f 10//1 2//1 11//1
f 4//1 1//1 3//1
f 13//2 14//2 15//2
f 16//2 17//2 18//2
f 19//2 14//2 13//2
f 15//2 16//2 18//2
f 20//2 21//2 19//2
f 20//2 19//2 13//2
f 22//2 14//2 19//2
f 23//2 24//2 22//2
f 24//2 14//2 22//2
f 13//2 15//2 18//2
f 4//3 17//3 5//3
f 4//3 18//3 17//3
f 3//4 18//4 4//4
f 3//4 13//4 18//4
f 9//5 13//5 3//5
f 9//5 20//5 13//5
f 8//4 20//4 9//4
f 8//4 21//4 20//4
f 7//3 21//3 8//3
f 7//3 19//3 21//3
f 10//4 19//4 7//4
f 10//4 22//4 19//4
f 12//5 22//5 10//5
f 12//5 23//5 22//5
f 11//4 23//4 12//4
f 11//4 24//4 23//4
f 2//3 24//3 11//3
f 2//3 14//3 24//3
f 1//6 14//6 2//6
f 1//6 15//6 14//6
f 6//5 15//5 1//5
f 6//5 16//5 15//5
f 5//4 16//4 6//4
f 5//4 17//4 16//4
# Vertices: 24, normals: 6, texture coordinates: 0, faces: 44

